<?xml version="1.0" encoding="UTF-8"?>
<svg width="256" height="256" version="1.1"
     xmlns="http://www.w3.org/2000/svg"
     xmlns:xlink="http://www.w3.org/1999/xlink">
  <defs>
    <linearGradient id="Gradient" x1="0" x2="0" y1="0" y2="1">
      <stop offset="0%" style="stop-color:#FC6C00;stop-opacity:1" />
      <stop offset="100%" style="stop-color:#522600;stop-opacity:1" />
    </linearGradient>
    <filter id="alpha-to-white">
      <feColorMatrix in="SourceGraphic" type="matrix"
                     values="0 0 0 1 0
                             0 0 0 1 0
                             0 0 0 1 0
                             0 0 0 1 0"/>
    </filter>
    <g id="child-svg">
<svg xmlns="http://www.w3.org/2000/svg" xmlns:xlink="http://www.w3.org/1999/xlink" height="16px" viewBox="0 0 16 16" width="16px"><filter id="a" height="100%" width="100%" x="0%" y="0%"><feColorMatrix in="SourceGraphic" type="matrix" values="0 0 0 0 1 0 0 0 0 1 0 0 0 0 1 0 0 0 1 0"/></filter><mask id="b"><g filter="url(#a)"><path d="m 0 0 h 16 v 16 h -16 z" fill-opacity="0.3"/></g></mask><clipPath id="c"><path d="m 0 0 h 1024 v 800 h -1024 z"/></clipPath><mask id="d"><g filter="url(#a)"><path d="m 0 0 h 16 v 16 h -16 z" fill-opacity="0.05"/></g></mask><clipPath id="e"><path d="m 0 0 h 1024 v 800 h -1024 z"/></clipPath><mask id="f"><g filter="url(#a)"><path d="m 0 0 h 16 v 16 h -16 z" fill-opacity="0.05"/></g></mask><clipPath id="g"><path d="m 0 0 h 1024 v 800 h -1024 z"/></clipPath><mask id="h"><g filter="url(#a)"><path d="m 0 0 h 16 v 16 h -16 z" fill-opacity="0.05"/></g></mask><clipPath id="i"><path d="m 0 0 h 1024 v 800 h -1024 z"/></clipPath><mask id="j"><g filter="url(#a)"><path d="m 0 0 h 16 v 16 h -16 z" fill-opacity="0.05"/></g></mask><clipPath id="k"><path d="m 0 0 h 1024 v 800 h -1024 z"/></clipPath><mask id="l"><g filter="url(#a)"><path d="m 0 0 h 16 v 16 h -16 z" fill-opacity="0.05"/></g></mask><clipPath id="m"><path d="m 0 0 h 1024 v 800 h -1024 z"/></clipPath><mask id="n"><g filter="url(#a)"><path d="m 0 0 h 16 v 16 h -16 z" fill-opacity="0.05"/></g></mask><clipPath id="o"><path d="m 0 0 h 1024 v 800 h -1024 z"/></clipPath><mask id="p"><g filter="url(#a)"><path d="m 0 0 h 16 v 16 h -16 z" fill-opacity="0.3"/></g></mask><clipPath id="q"><path d="m 0 0 h 1024 v 800 h -1024 z"/></clipPath><mask id="r"><g filter="url(#a)"><path d="m 0 0 h 16 v 16 h -16 z" fill-opacity="0.5"/></g></mask><clipPath id="s"><path d="m 0 0 h 1024 v 800 h -1024 z"/></clipPath><path d="m 8 1 c -0.21875 0 -0.441406 0.011719 -0.65625 0.03125 l -0.40625 2.09375 c -0.332031 0.070312 -0.65625 0.175781 -0.96875 0.3125 l -1.53125 -1.464844 c -0.386719 0.226563 -0.726562 0.511719 -1.0625 0.808594 l 0.90625 1.90625 c -0.222656 0.25 -0.421875 0.523438 -0.59375 0.8125 l -2.09375 -0.277344 c -0.175781 0.410156 -0.3125 0.839844 -0.40625 1.277344 l 1.84375 1 c -0.019531 0.167969 -0.027344 0.332031 -0.03125 0.5 c 0 0.171875 0.015625 0.332031 0.03125 0.5 l -1.84375 1 c 0.097656 0.445312 0.226562 0.871094 0.40625 1.28125 l 2.09375 -0.28125 c 0.171875 0.289062 0.371094 0.5625 0.59375 0.8125 l -0.90625 1.90625 c 0.335938 0.300781 0.675781 0.582031 1.0625 0.8125 l 1.53125 -1.46875 c 0.304688 0.136719 0.632812 0.238281 0.96875 0.3125 l 0.40625 2.09375 c 0.4375 0.042969 0.875 0.042969 1.3125 0 l 0.40625 -2.09375 c 0.335938 -0.074219 0.664062 -0.175781 0.96875 -0.3125 l 1.53125 1.46875 c 0.386719 -0.230469 0.726562 -0.511719 1.0625 -0.8125 l -0.90625 -1.90625 c 0.222656 -0.25 0.421875 -0.523438 0.59375 -0.8125 l 2.09375 0.28125 c 0.175781 -0.414062 0.3125 -0.839844 0.40625 -1.28125 l -1.84375 -1 c 0.015625 -0.167969 0.03125 -0.328125 0.03125 -0.5 s -0.015625 -0.332031 -0.03125 -0.5 l 1.84375 -1 c -0.09375 -0.4375 -0.230469 -0.867188 -0.40625 -1.28125 l -2.09375 0.28125 c -0.171875 -0.289062 -0.367188 -0.5625 -0.59375 -0.8125 l 0.90625 -1.90625 c -0.335938 -0.296875 -0.675781 -0.582031 -1.0625 -0.8125 l -1.53125 1.46875 c -0.3125 -0.136719 -0.636719 -0.242188 -0.96875 -0.3125 l -0.40625 -2.09375 c -0.21875 -0.019531 -0.4375 -0.03125 -0.65625 -0.03125 z m 0 4 c 1.65625 0 3 1.34375 3 3 s -1.34375 3 -3 3 s -3 -1.34375 -3 -3 s 1.34375 -3 3 -3 z m 0 0" fill="#2e3436"/><g clip-path="url(#c)" mask="url(#b)" transform="matrix(1 0 0 1 -560 -222)"><path d="m 562.460938 212.058594 h 10.449218 c -1.183594 0.492187 -1.296875 2.460937 0 3 h -10.449218 z m 0 0" fill="#2e3436"/></g><g clip-path="url(#e)" mask="url(#d)" transform="matrix(1 0 0 1 -560 -222)"><path d="m 16 632 h 1 v 1 h -1 z m 0 0" fill="#2e3436" fill-rule="evenodd"/></g><g clip-path="url(#g)" mask="url(#f)" transform="matrix(1 0 0 1 -560 -222)"><path d="m 17 631 h 1 v 1 h -1 z m 0 0" fill="#2e3436" fill-rule="evenodd"/></g><g clip-path="url(#i)" mask="url(#h)" transform="matrix(1 0 0 1 -560 -222)"><path d="m 18 634 h 1 v 1 h -1 z m 0 0" fill="#2e3436" fill-rule="evenodd"/></g><g clip-path="url(#k)" mask="url(#j)" transform="matrix(1 0 0 1 -560 -222)"><path d="m 16 634 h 1 v 1 h -1 z m 0 0" fill="#2e3436" fill-rule="evenodd"/></g><g clip-path="url(#m)" mask="url(#l)" transform="matrix(1 0 0 1 -560 -222)"><path d="m 17 635 h 1 v 1 h -1 z m 0 0" fill="#2e3436" fill-rule="evenodd"/></g><g clip-path="url(#o)" mask="url(#n)" transform="matrix(1 0 0 1 -560 -222)"><path d="m 19 635 h 1 v 1 h -1 z m 0 0" fill="#2e3436" fill-rule="evenodd"/></g><g clip-path="url(#q)" mask="url(#p)" transform="matrix(1 0 0 1 -560 -222)"><path d="m 136 660 v 7 h 7 v -7 z m 0 0" fill="#2e3436"/></g><g clip-path="url(#s)" mask="url(#r)" transform="matrix(1 0 0 1 -560 -222)"><path d="m 219 642 h 3 v 12 h -3 z m 0 0" fill="#2e3436"/></g></svg>
</g>
  </defs>
  <rect
      width="256"
      height="256"
      fill="url(#Gradient)"
      ry="128"
      x="0"
      y="0" />
  <use xlink:href="#child-svg" filter="url(#alpha-to-white)"
       transform="matrix(10,0,0,10,48,48)" />
</svg>
